projects/verilog_tutorials/project_0/02_alu/vcd/ALU.vcd
$date
	Mon Jul  1 17:11:59 2024
$end
$version
	Icarus Verilog
$end
$timescale
	1ps
$end
$scope module ALU_tb $end
$var wire 32 ! ALUOut [31:0] $end
$var reg 32 " A [31:0] $end
$var reg 32 # B [31:0] $end
$var reg 3 $ F [2:0] $end
$var reg 256 % vcd_file [255:0] $end
$var integer 32 & i [31:0] $end
$scope module u_ALU $end
$var wire 32 ' A [31:0] $end
$var wire 32 ( B [31:0] $end
$var wire 3 ) F [2:0] $end
$var reg 32 * ALUOut [31:0] $end
$upscope $end
$scope task init $end
$upscope $end
$upscope $end
$enddefinitions $end
#0
$dumpvars
b10001010000000000 *
b0 )
b1000000100010010101111010000001 (
b10010010000101010011010100100100 '
b0 &
b101110001011110111011001100011011001000010111101000001010011000101010100101110011101100110001101100100 %
b0 $
b1000000100010010101111010000001 #
b10010010000101010011010100100100 "
b10001010000000000 !
$end
#10000
b110101111101001101011001101011 !
b110101111101001101011001101011 *
b110001111100000101011001100011 #
b110001111100000101011001100011 (
b100100001001101011000001001 "
b100100001001101011000001001 '
b1 $
b1 )
b1 &
#20000
b1001101100110010001010010011010 !
b1001101100110010001010010011010 *
b11000110110111111001100110001101 #
b11000110110111111001100110001101 (
b10000110101110010111101100001101 "
b10000110101110010111101100001101 '
b10 $
b10 )
b10 &
#30000
b0 !
b0 *
b1001001101110101001000010010 #
b1001001101110101001000010010 (
b110010110000101000010001100101 "
b110010110000101000010001100101 '
b11 $
b11 )
b11 &
#40000
b1000000010001000000000 !
b1000000010001000000000 *
b10000110110101111100110100001101 #
b10000110110101111100110100001101 (
b10000000111100111110001100000001 "
b10000000111100111110001100000001 '
b100 $
b100 )
b100 &
#50000
b11111011011100111111001111110110 !
b11111011011100111111001111110110 *
b10011110100011011100110100111101 #
b10011110100011011100110100111101 (
b10111011001000111111000101110110 "
b10111011001000111111000101110110 '
b101 $
b101 )
b101 &
#60000
b110000101001100110000001100001 !
b110000101001100110000001100001 *
b11000110001011011111011110001100 #
b11000110001011011111011110001100 (
b11110110110101000101011111101101 "
b11110110110101000101011111101101 '
b110 $
b110 )
b110 &
#70000
b0 !
b0 *
b1100011001101110010010011000110 #
b1100011001101110010010011000110 (
b11111100111111011110100111111001 "
b11111100111111011110100111111001 '
b111 $
b111 )
b111 &
#80000
b1000 &
