projects/zaram_training_course/03_sequential_logic/07_regfile/vcd/regfile.vcd
$date
	Thu Jul  4 09:47:01 2024
$end
$version
	Icarus Verilog
$end
$timescale
	1ps
$end
$scope module regfile_tb $end
$var wire 32 ! rd_data1 [31:0] $end
$var wire 32 " rd_data0 [31:0] $end
$var reg 1 # clk $end
$var reg 5 $ rd_addr0 [4:0] $end
$var reg 5 % rd_addr1 [4:0] $end
$var reg 256 & taskState [255:0] $end
$var reg 256 ' vcd_file [255:0] $end
$var reg 1 ( wen $end
$var reg 5 ) wr_addr [4:0] $end
$var reg 32 * wr_data [31:0] $end
$var integer 32 + err [31:0] $end
$var integer 32 , i [31:0] $end
$scope module u_regfile $end
$var wire 1 # clk $end
$var wire 5 - rd_addr0 [4:0] $end
$var wire 5 . rd_addr1 [4:0] $end
$var wire 32 / rd_data0 [31:0] $end
$var wire 32 0 rd_data1 [31:0] $end
$var wire 1 ( wen $end
$var wire 5 1 wr_addr [4:0] $end
$var wire 32 2 wr_data [31:0] $end
$upscope $end
$scope task init $end
$upscope $end
$scope task regRD $end
$var reg 5 3 t_rd_addr0 [4:0] $end
$var reg 5 4 t_rd_addr1 [4:0] $end
$upscope $end
$scope task regWR $end
$var reg 5 5 t_wr_addr [4:0] $end
$var reg 32 6 t_wr_data [31:0] $end
$upscope $end
$upscope $end
$scope module regfile_tb $end
$scope module u_regfile $end
$var reg 32 7 \rf_arr[0] [31:0] $end
$upscope $end
$upscope $end
$scope module regfile_tb $end
$scope module u_regfile $end
$var reg 32 8 \rf_arr[1] [31:0] $end
$upscope $end
$upscope $end
$scope module regfile_tb $end
$scope module u_regfile $end
$var reg 32 9 \rf_arr[2] [31:0] $end
$upscope $end
$upscope $end
$scope module regfile_tb $end
$scope module u_regfile $end
$var reg 32 : \rf_arr[3] [31:0] $end
$upscope $end
$upscope $end
$scope module regfile_tb $end
$scope module u_regfile $end
$var reg 32 ; \rf_arr[4] [31:0] $end
$upscope $end
$upscope $end
$scope module regfile_tb $end
$scope module u_regfile $end
$var reg 32 < \rf_arr[5] [31:0] $end
$upscope $end
$upscope $end
$scope module regfile_tb $end
$scope module u_regfile $end
$var reg 32 = \rf_arr[6] [31:0] $end
$upscope $end
$upscope $end
$scope module regfile_tb $end
$scope module u_regfile $end
$var reg 32 > \rf_arr[7] [31:0] $end
$upscope $end
$upscope $end
$scope module regfile_tb $end
$scope module u_regfile $end
$var reg 32 ? \rf_arr[8] [31:0] $end
$upscope $end
$upscope $end
$scope module regfile_tb $end
$scope module u_regfile $end
$var reg 32 @ \rf_arr[9] [31:0] $end
$upscope $end
$upscope $end
$scope module regfile_tb $end
$scope module u_regfile $end
$var reg 32 A \rf_arr[10] [31:0] $end
$upscope $end
$upscope $end
$scope module regfile_tb $end
$scope module u_regfile $end
$var reg 32 B \rf_arr[11] [31:0] $end
$upscope $end
$upscope $end
$scope module regfile_tb $end
$scope module u_regfile $end
$var reg 32 C \rf_arr[12] [31:0] $end
$upscope $end
$upscope $end
$scope module regfile_tb $end
$scope module u_regfile $end
$var reg 32 D \rf_arr[13] [31:0] $end
$upscope $end
$upscope $end
$scope module regfile_tb $end
$scope module u_regfile $end
$var reg 32 E \rf_arr[14] [31:0] $end
$upscope $end
$upscope $end
$scope module regfile_tb $end
$scope module u_regfile $end
$var reg 32 F \rf_arr[15] [31:0] $end
$upscope $end
$upscope $end
$scope module regfile_tb $end
$scope module u_regfile $end
$var reg 32 G \rf_arr[16] [31:0] $end
$upscope $end
$upscope $end
$scope module regfile_tb $end
$scope module u_regfile $end
$var reg 32 H \rf_arr[17] [31:0] $end
$upscope $end
$upscope $end
$scope module regfile_tb $end
$scope module u_regfile $end
$var reg 32 I \rf_arr[18] [31:0] $end
$upscope $end
$upscope $end
$scope module regfile_tb $end
$scope module u_regfile $end
$var reg 32 J \rf_arr[19] [31:0] $end
$upscope $end
$upscope $end
$scope module regfile_tb $end
$scope module u_regfile $end
$var reg 32 K \rf_arr[20] [31:0] $end
$upscope $end
$upscope $end
$scope module regfile_tb $end
$scope module u_regfile $end
$var reg 32 L \rf_arr[21] [31:0] $end
$upscope $end
$upscope $end
$scope module regfile_tb $end
$scope module u_regfile $end
$var reg 32 M \rf_arr[22] [31:0] $end
$upscope $end
$upscope $end
$scope module regfile_tb $end
$scope module u_regfile $end
$var reg 32 N \rf_arr[23] [31:0] $end
$upscope $end
$upscope $end
$scope module regfile_tb $end
$scope module u_regfile $end
$var reg 32 O \rf_arr[24] [31:0] $end
$upscope $end
$upscope $end
$scope module regfile_tb $end
$scope module u_regfile $end
$var reg 32 P \rf_arr[25] [31:0] $end
$upscope $end
$upscope $end
$scope module regfile_tb $end
$scope module u_regfile $end
$var reg 32 Q \rf_arr[26] [31:0] $end
$upscope $end
$upscope $end
$scope module regfile_tb $end
$scope module u_regfile $end
$var reg 32 R \rf_arr[27] [31:0] $end
$upscope $end
$upscope $end
$scope module regfile_tb $end
$scope module u_regfile $end
$var reg 32 S \rf_arr[28] [31:0] $end
$upscope $end
$upscope $end
$scope module regfile_tb $end
$scope module u_regfile $end
$var reg 32 T \rf_arr[29] [31:0] $end
$upscope $end
$upscope $end
$scope module regfile_tb $end
$scope module u_regfile $end
$var reg 32 U \rf_arr[30] [31:0] $end
$upscope $end
$upscope $end
$scope module regfile_tb $end
$scope module u_regfile $end
$var reg 32 V \rf_arr[31] [31:0] $end
$upscope $end
$upscope $end
$scope module regfile_tb $end
$scope module u_regfile $end
$upscope $end
$scope task init $end
$upscope $end
$scope task regRD $end
$upscope $end
$scope task regWR $end
$upscope $end
$upscope $end
$enddefinitions $end
#0
$dumpvars
bx V
bx U
bx T
bx S
bx R
bx Q
bx P
bx O
bx N
bx M
bx L
bx K
bx J
bx I
bx H
bx G
bx F
bx E
bx D
bx C
bx B
bx A
bx @
bx ?
bx >
bx =
bx <
bx ;
bx :
bx 9
bx 8
bx 7
bx 6
bx 5
bx 4
bx 3
b0 2
b0 1
bx 0
bx /
b0 .
b0 -
b100000 ,
b0 +
b0 *
b0 )
0(
b10111000101111011101100110001101100100001011110111001001100101011001110110011001101001011011000110010100101110011101100110001101100100 '
b1001001011011100110100101110100 &
b0 %
b0 $
0#
bx "
bx !
$end
#5000
bx 7
1#
#10000
0#
#15000
bx 7
1#
#20000
0#
#25000
bx 7
1#
#30000
0#
#35000
bx 7
1#
#40000
1(
b101011101010010 &
0#
b1 6
b1 5
b1 ,
#45000
b0 7
b0 "
b0 /
b0 !
b0 0
1#
#50000
b10 6
b10 5
b10 ,
b1 )
b1 1
b1 *
b1 2
0#
#55000
b1 8
1#
#60000
b11 6
b11 5
b11 ,
b10 )
b10 1
b10 *
b10 2
0#
#65000
b10 9
1#
#70000
b100 6
b100 5
b100 ,
b11 )
b11 1
b11 *
b11 2
0#
#75000
b11 :
1#
#80000
b101 6
b101 5
b101 ,
b100 )
b100 1
b100 *
b100 2
0#
#85000
b100 ;
1#
#90000
b110 6
b110 5
b110 ,
b101 )
b101 1
b101 *
b101 2
0#
#95000
b101 <
1#
#100000
b111 6
b111 5
b111 ,
b110 )
b110 1
b110 *
b110 2
0#
#105000
b110 =
1#
#110000
b1000 6
b1000 5
b1000 ,
b111 )
b111 1
b111 *
b111 2
0#
#115000
b111 >
1#
#120000
b1001 6
b1001 5
b1001 ,
b1000 )
b1000 1
b1000 *
b1000 2
0#
#125000
b1000 ?
1#
#130000
b1010 6
b1010 5
b1010 ,
b1001 )
b1001 1
b1001 *
b1001 2
0#
#135000
b1001 @
1#
#140000
b1011 6
b1011 5
b1011 ,
b1010 )
b1010 1
b1010 *
b1010 2
0#
#145000
b1010 A
1#
#150000
b1100 6
b1100 5
b1100 ,
b1011 )
b1011 1
b1011 *
b1011 2
0#
#155000
b1011 B
1#
#160000
b1101 6
b1101 5
b1101 ,
b1100 )
b1100 1
b1100 *
b1100 2
0#
#165000
b1100 C
1#
#170000
b1110 6
b1110 5
b1110 ,
b1101 )
b1101 1
b1101 *
b1101 2
0#
#175000
b1101 D
1#
#180000
b1111 6
b1111 5
b1111 ,
b1110 )
b1110 1
b1110 *
b1110 2
0#
#185000
b1110 E
1#
#190000
b10000 6
b10000 5
b10000 ,
b1111 )
b1111 1
b1111 *
b1111 2
0#
#195000
b1111 F
1#
#200000
b10001 6
b10001 5
b10001 ,
b10000 )
b10000 1
b10000 *
b10000 2
0#
#205000
b10000 G
1#
#210000
b10010 6
b10010 5
b10010 ,
b10001 )
b10001 1
b10001 *
b10001 2
0#
#215000
b10001 H
1#
#220000
b10011 6
b10011 5
b10011 ,
b10010 )
b10010 1
b10010 *
b10010 2
0#
#225000
b10010 I
1#
#230000
b10100 6
b10100 5
b10100 ,
b10011 )
b10011 1
b10011 *
b10011 2
0#
#235000
b10011 J
1#
#240000
b10101 6
b10101 5
b10101 ,
b10100 )
b10100 1
b10100 *
b10100 2
0#
#245000
b10100 K
1#
#250000
b10110 6
b10110 5
b10110 ,
b10101 )
b10101 1
b10101 *
b10101 2
0#
#255000
b10101 L
1#
#260000
b10111 6
b10111 5
b10111 ,
b10110 )
b10110 1
b10110 *
b10110 2
0#
#265000
b10110 M
1#
#270000
b11000 6
b11000 5
b11000 ,
b10111 )
b10111 1
b10111 *
b10111 2
0#
#275000
b10111 N
1#
#280000
b11001 6
b11001 5
b11001 ,
b11000 )
b11000 1
b11000 *
b11000 2
0#
#285000
b11000 O
1#
#290000
b11010 6
b11010 5
b11010 ,
b11001 )
b11001 1
b11001 *
b11001 2
0#
#295000
b11001 P
1#
#300000
b11011 6
b11011 5
b11011 ,
b11010 )
b11010 1
b11010 *
b11010 2
0#
#305000
b11010 Q
1#
#310000
b11100 6
b11100 5
b11100 ,
b11011 )
b11011 1
b11011 *
b11011 2
0#
#315000
b11011 R
1#
#320000
b11101 6
b11101 5
b11101 ,
b11100 )
b11100 1
b11100 *
b11100 2
0#
#325000
b11100 S
1#
#330000
b11110 6
b11110 5
b11110 ,
b11101 )
b11101 1
b11101 *
b11101 2
0#
#335000
b11101 T
1#
#340000
b11111 6
b11111 5
b11111 ,
b11110 )
b11110 1
b11110 *
b11110 2
0#
#345000
b11110 U
1#
#350000
b0 4
b0 3
b0 ,
b11111 )
b11111 1
b11111 *
b11111 2
0#
#355000
b11111 V
1#
#360000
b1 4
b1 3
b1 ,
0(
b101001001000100 &
0#
#365000
b11111 V
1#
#370000
b10 4
b10 3
b10 ,
b1 !
b1 0
b1 %
b1 .
b1 "
b1 /
b1 $
b1 -
0#
#375000
b11111 V
1#
#380000
b11 4
b11 3
b11 ,
b10 !
b10 0
b10 %
b10 .
b10 "
b10 /
b10 $
b10 -
0#
#385000
b11111 V
1#
#390000
b100 4
b100 3
b100 ,
b11 !
b11 0
b11 %
b11 .
b11 "
b11 /
b11 $
b11 -
0#
#395000
b11111 V
1#
#400000
b101 4
b101 3
b101 ,
b100 !
b100 0
b100 %
b100 .
b100 "
b100 /
b100 $
b100 -
0#
#405000
b11111 V
1#
#410000
b110 4
b110 3
b110 ,
b101 !
b101 0
b101 %
b101 .
b101 "
b101 /
b101 $
b101 -
0#
#415000
b11111 V
1#
#420000
b111 4
b111 3
b111 ,
b110 !
b110 0
b110 %
b110 .
b110 "
b110 /
b110 $
b110 -
0#
#425000
b11111 V
1#
#430000
b1000 4
b1000 3
b1000 ,
b111 !
b111 0
b111 %
b111 .
b111 "
b111 /
b111 $
b111 -
0#
#435000
b11111 V
1#
#440000
b1001 4
b1001 3
b1001 ,
b1000 !
b1000 0
b1000 %
b1000 .
b1000 "
b1000 /
b1000 $
b1000 -
0#
#445000
b11111 V
1#
#450000
b1010 4
b1010 3
b1010 ,
b1001 !
b1001 0
b1001 %
b1001 .
b1001 "
b1001 /
b1001 $
b1001 -
0#
#455000
b11111 V
1#
#460000
b1011 4
b1011 3
b1011 ,
b1010 !
b1010 0
b1010 %
b1010 .
b1010 "
b1010 /
b1010 $
b1010 -
0#
#465000
b11111 V
1#
#470000
b1100 4
b1100 3
b1100 ,
b1011 !
b1011 0
b1011 %
b1011 .
b1011 "
b1011 /
b1011 $
b1011 -
0#
#475000
b11111 V
1#
#480000
b1101 4
b1101 3
b1101 ,
b1100 !
b1100 0
b1100 %
b1100 .
b1100 "
b1100 /
b1100 $
b1100 -
0#
#485000
b11111 V
1#
#490000
b1110 4
b1110 3
b1110 ,
b1101 !
b1101 0
b1101 %
b1101 .
b1101 "
b1101 /
b1101 $
b1101 -
0#
#495000
b11111 V
1#
#500000
b1111 4
b1111 3
b1111 ,
b1110 !
b1110 0
b1110 %
b1110 .
b1110 "
b1110 /
b1110 $
b1110 -
0#
#505000
b11111 V
1#
#510000
b10000 4
b10000 3
b10000 ,
b1111 !
b1111 0
b1111 %
b1111 .
b1111 "
b1111 /
b1111 $
b1111 -
0#
#515000
b11111 V
1#
#520000
b10001 4
b10001 3
b10001 ,
b10000 !
b10000 0
b10000 %
b10000 .
b10000 "
b10000 /
b10000 $
b10000 -
0#
#525000
b11111 V
1#
#530000
b10010 4
b10010 3
b10010 ,
b10001 !
b10001 0
b10001 %
b10001 .
b10001 "
b10001 /
b10001 $
b10001 -
0#
#535000
b11111 V
1#
#540000
b10011 4
b10011 3
b10011 ,
b10010 !
b10010 0
b10010 %
b10010 .
b10010 "
b10010 /
b10010 $
b10010 -
0#
#545000
b11111 V
1#
#550000
b10100 4
b10100 3
b10100 ,
b10011 !
b10011 0
b10011 %
b10011 .
b10011 "
b10011 /
b10011 $
b10011 -
0#
#555000
b11111 V
1#
#560000
b10101 4
b10101 3
b10101 ,
b10100 !
b10100 0
b10100 %
b10100 .
b10100 "
b10100 /
b10100 $
b10100 -
0#
#565000
b11111 V
1#
#570000
b10110 4
b10110 3
b10110 ,
b10101 !
b10101 0
b10101 %
b10101 .
b10101 "
b10101 /
b10101 $
b10101 -
0#
#575000
b11111 V
1#
#580000
b10111 4
b10111 3
b10111 ,
b10110 !
b10110 0
b10110 %
b10110 .
b10110 "
b10110 /
b10110 $
b10110 -
0#
#585000
b11111 V
1#
#590000
b11000 4
b11000 3
b11000 ,
b10111 !
b10111 0
b10111 %
b10111 .
b10111 "
b10111 /
b10111 $
b10111 -
0#
#595000
b11111 V
1#
#600000
b11001 4
b11001 3
b11001 ,
b11000 !
b11000 0
b11000 %
b11000 .
b11000 "
b11000 /
b11000 $
b11000 -
0#
#605000
b11111 V
1#
#610000
b11010 4
b11010 3
b11010 ,
b11001 !
b11001 0
b11001 %
b11001 .
b11001 "
b11001 /
b11001 $
b11001 -
0#
#615000
b11111 V
1#
#620000
b11011 4
b11011 3
b11011 ,
b11010 !
b11010 0
b11010 %
b11010 .
b11010 "
b11010 /
b11010 $
b11010 -
0#
#625000
b11111 V
1#
#630000
b11100 4
b11100 3
b11100 ,
b11011 !
b11011 0
b11011 %
b11011 .
b11011 "
b11011 /
b11011 $
b11011 -
0#
#635000
b11111 V
1#
#640000
b11101 4
b11101 3
b11101 ,
b11100 !
b11100 0
b11100 %
b11100 .
b11100 "
b11100 /
b11100 $
b11100 -
0#
#645000
b11111 V
1#
#650000
b11110 4
b11110 3
b11110 ,
b11101 !
b11101 0
b11101 %
b11101 .
b11101 "
b11101 /
b11101 $
b11101 -
0#
#655000
b11111 V
1#
#660000
b11111 4
b11111 3
b11111 ,
b11110 !
b11110 0
b11110 %
b11110 .
b11110 "
b11110 /
b11110 $
b11110 -
0#
#665000
b11111 V
1#
#670000
b0 6
b0 5
b0 ,
b11111 !
b11111 0
b11111 %
b11111 .
b11111 "
b11111 /
b11111 $
b11111 -
0#
#675000
b11111 V
1#
#680000
1(
b0 )
b0 1
b0 *
b0 2
b101011101010010 &
0#
#685000
b0 7
1#
#690000
b1 5
b1 ,
0(
b0 !
b0 0
b0 %
b0 .
b0 "
b0 /
b0 $
b0 -
b101001001000100 &
0#
b0 4
b0 3
#695000
b0 7
1#
#700000
1(
b1 )
b1 1
b101011101010010 &
0#
#705000
b0 8
1#
#710000
b10 5
b10 ,
0(
b1 %
b1 .
b1 $
b1 -
b101001001000100 &
0#
b1 4
b1 3
#715000
b0 8
1#
#720000
1(
b10 )
b10 1
b101011101010010 &
0#
#725000
b0 9
1#
#730000
b11 5
b11 ,
0(
b10 %
b10 .
b10 $
b10 -
b101001001000100 &
0#
b10 4
b10 3
#735000
b0 9
1#
#740000
1(
b11 )
b11 1
b101011101010010 &
0#
#745000
b0 :
1#
#750000
b100 5
b100 ,
0(
b11 %
b11 .
b11 $
b11 -
b101001001000100 &
0#
b11 4
b11 3
#755000
b0 :
1#
#760000
1(
b100 )
b100 1
b101011101010010 &
0#
#765000
b0 ;
1#
#770000
b101 5
b101 ,
0(
b100 %
b100 .
b100 $
b100 -
b101001001000100 &
0#
b100 4
b100 3
#775000
b0 ;
1#
#780000
1(
b101 )
b101 1
b101011101010010 &
0#
#785000
b0 <
1#
#790000
b110 5
b110 ,
0(
b101 %
b101 .
b101 $
b101 -
b101001001000100 &
0#
b101 4
b101 3
#795000
b0 <
1#
#800000
1(
b110 )
b110 1
b101011101010010 &
0#
#805000
b0 =
1#
#810000
b111 5
b111 ,
0(
b110 %
b110 .
b110 $
b110 -
b101001001000100 &
0#
b110 4
b110 3
#815000
b0 =
1#
#820000
1(
b111 )
b111 1
b101011101010010 &
0#
#825000
b0 >
1#
#830000
b1000 5
b1000 ,
0(
b111 %
b111 .
b111 $
b111 -
b101001001000100 &
0#
b111 4
b111 3
#835000
b0 >
1#
#840000
1(
b1000 )
b1000 1
b101011101010010 &
0#
#845000
b0 ?
1#
#850000
b1001 5
b1001 ,
0(
b1000 %
b1000 .
b1000 $
b1000 -
b101001001000100 &
0#
b1000 4
b1000 3
#855000
b0 ?
1#
#860000
1(
b1001 )
b1001 1
b101011101010010 &
0#
#865000
b0 @
1#
#870000
b1010 5
b1010 ,
0(
b1001 %
b1001 .
b1001 $
b1001 -
b101001001000100 &
0#
b1001 4
b1001 3
#875000
b0 @
1#
#880000
1(
b1010 )
b1010 1
b101011101010010 &
0#
#885000
b0 A
1#
#890000
b1011 5
b1011 ,
0(
b1010 %
b1010 .
b1010 $
b1010 -
b101001001000100 &
0#
b1010 4
b1010 3
#895000
b0 A
1#
#900000
1(
b1011 )
b1011 1
b101011101010010 &
0#
#905000
b0 B
1#
#910000
b1100 5
b1100 ,
0(
b1011 %
b1011 .
b1011 $
b1011 -
b101001001000100 &
0#
b1011 4
b1011 3
#915000
b0 B
1#
#920000
1(
b1100 )
b1100 1
b101011101010010 &
0#
#925000
b0 C
1#
#930000
b1101 5
b1101 ,
0(
b1100 %
b1100 .
b1100 $
b1100 -
b101001001000100 &
0#
b1100 4
b1100 3
#935000
b0 C
1#
#940000
1(
b1101 )
b1101 1
b101011101010010 &
0#
#945000
b0 D
1#
#950000
b1110 5
b1110 ,
0(
b1101 %
b1101 .
b1101 $
b1101 -
b101001001000100 &
0#
b1101 4
b1101 3
#955000
b0 D
1#
#960000
1(
b1110 )
b1110 1
b101011101010010 &
0#
#965000
b0 E
1#
#970000
b1111 5
b1111 ,
0(
b1110 %
b1110 .
b1110 $
b1110 -
b101001001000100 &
0#
b1110 4
b1110 3
#975000
b0 E
1#
#980000
1(
b1111 )
b1111 1
b101011101010010 &
0#
#985000
b0 F
1#
#990000
b10000 5
b10000 ,
0(
b1111 %
b1111 .
b1111 $
b1111 -
b101001001000100 &
0#
b1111 4
b1111 3
#995000
b0 F
1#
#1000000
1(
b10000 )
b10000 1
b101011101010010 &
0#
#1005000
b0 G
1#
#1010000
b10001 5
b10001 ,
0(
b10000 %
b10000 .
b10000 $
b10000 -
b101001001000100 &
0#
b10000 4
b10000 3
#1015000
b0 G
1#
#1020000
1(
b10001 )
b10001 1
b101011101010010 &
0#
#1025000
b0 H
1#
#1030000
b10010 5
b10010 ,
0(
b10001 %
b10001 .
b10001 $
b10001 -
b101001001000100 &
0#
b10001 4
b10001 3
#1035000
b0 H
1#
#1040000
1(
b10010 )
b10010 1
b101011101010010 &
0#
#1045000
b0 I
1#
#1050000
b10011 5
b10011 ,
0(
b10010 %
b10010 .
b10010 $
b10010 -
b101001001000100 &
0#
b10010 4
b10010 3
#1055000
b0 I
1#
#1060000
1(
b10011 )
b10011 1
b101011101010010 &
0#
#1065000
b0 J
1#
#1070000
b10100 5
b10100 ,
0(
b10011 %
b10011 .
b10011 $
b10011 -
b101001001000100 &
0#
b10011 4
b10011 3
#1075000
b0 J
1#
#1080000
1(
b10100 )
b10100 1
b101011101010010 &
0#
#1085000
b0 K
1#
#1090000
b10101 5
b10101 ,
0(
b10100 %
b10100 .
b10100 $
b10100 -
b101001001000100 &
0#
b10100 4
b10100 3
#1095000
b0 K
1#
#1100000
1(
b10101 )
b10101 1
b101011101010010 &
0#
#1105000
b0 L
1#
#1110000
b10110 5
b10110 ,
0(
b10101 %
b10101 .
b10101 $
b10101 -
b101001001000100 &
0#
b10101 4
b10101 3
#1115000
b0 L
1#
#1120000
1(
b10110 )
b10110 1
b101011101010010 &
0#
#1125000
b0 M
1#
#1130000
b10111 5
b10111 ,
0(
b10110 %
b10110 .
b10110 $
b10110 -
b101001001000100 &
0#
b10110 4
b10110 3
#1135000
b0 M
1#
#1140000
1(
b10111 )
b10111 1
b101011101010010 &
0#
#1145000
b0 N
1#
#1150000
b11000 5
b11000 ,
0(
b10111 %
b10111 .
b10111 $
b10111 -
b101001001000100 &
0#
b10111 4
b10111 3
#1155000
b0 N
1#
#1160000
1(
b11000 )
b11000 1
b101011101010010 &
0#
#1165000
b0 O
1#
#1170000
b11001 5
b11001 ,
0(
b11000 %
b11000 .
b11000 $
b11000 -
b101001001000100 &
0#
b11000 4
b11000 3
#1175000
b0 O
1#
#1180000
1(
b11001 )
b11001 1
b101011101010010 &
0#
#1185000
b0 P
1#
#1190000
b11010 5
b11010 ,
0(
b11001 %
b11001 .
b11001 $
b11001 -
b101001001000100 &
0#
b11001 4
b11001 3
#1195000
b0 P
1#
#1200000
1(
b11010 )
b11010 1
b101011101010010 &
0#
#1205000
b0 Q
1#
#1210000
b11011 5
b11011 ,
0(
b11010 %
b11010 .
b11010 $
b11010 -
b101001001000100 &
0#
b11010 4
b11010 3
#1215000
b0 Q
1#
#1220000
1(
b11011 )
b11011 1
b101011101010010 &
0#
#1225000
b0 R
1#
#1230000
b11100 5
b11100 ,
0(
b11011 %
b11011 .
b11011 $
b11011 -
b101001001000100 &
0#
b11011 4
b11011 3
#1235000
b0 R
1#
#1240000
1(
b11100 )
b11100 1
b101011101010010 &
0#
#1245000
b0 S
1#
#1250000
b11101 5
b11101 ,
0(
b11100 %
b11100 .
b11100 $
b11100 -
b101001001000100 &
0#
b11100 4
b11100 3
#1255000
b0 S
1#
#1260000
1(
b11101 )
b11101 1
b101011101010010 &
0#
#1265000
b0 T
1#
#1270000
b11110 5
b11110 ,
0(
b11101 %
b11101 .
b11101 $
b11101 -
b101001001000100 &
0#
b11101 4
b11101 3
#1275000
b0 T
1#
#1280000
1(
b11110 )
b11110 1
b101011101010010 &
0#
#1285000
b0 U
1#
#1290000
b11111 5
b11111 ,
0(
b11110 %
b11110 .
b11110 $
b11110 -
b101001001000100 &
0#
b11110 4
b11110 3
#1295000
b0 U
1#
#1300000
1(
b11111 )
b11111 1
b101011101010010 &
0#
#1305000
b0 V
1#
#1310000
b100000 ,
0(
b11111 %
b11111 .
b11111 $
b11111 -
b101001001000100 &
0#
b11111 4
b11111 3
