projects/zaram_training_course/03_sequential_logic/05_fsm_seq_detect/vcd/fsm_detect_moore.vcd
$date
	Tue Jun 25 16:07:16 2024
$end
$version
	Icarus Verilog
$end
$timescale
	1ps
$end
$scope module fsm_detect_moore_tb $end
$var wire 1 ! out $end
$var reg 1 " clk $end
$var reg 1 # in $end
$var reg 1 $ rstn $end
$var reg 256 % taskState [255:0] $end
$var reg 256 & vcd_file [255:0] $end
$var integer 32 ' err [31:0] $end
$var integer 32 ( i [31:0] $end
$scope module u_fsm_detect_moore $end
$var wire 1 " clk $end
$var wire 1 # in $end
$var wire 1 $ rstn $end
$var wire 1 ! out $end
$var reg 3 ) next_state [2:0] $end
$var reg 3 * state [2:0] $end
$upscope $end
$scope task init $end
$upscope $end
$scope task resetReleaseAfterNCycles $end
$var reg 10 + n [9:0] $end
$upscope $end
$upscope $end
$enddefinitions $end
#0
$dumpvars
b100 +
b0 *
b0 )
bx (
b0 '
b10111000101111011101100110001101100100001011110110011001110011011011010101111101100100011001010111010001100101011000110111010001011111011011010110111101101111011100100110010100101110011101100110001101100100 &
b101001001100101011100110110010101110100001000000100111101101110 %
0$
0#
0"
0!
$end
#5000
1"
#10000
0"
b0 (
b10100100110010101110011011001010111010000100000010011110100011001000110 %
1$
#15000
1"
#20000
b1 )
0"
1#
b1 (
#25000
b1 *
1"
#30000
0"
b10 (
#35000
1"
#40000
0"
b11 (
#45000
1"
#50000
0"
b100 (
#55000
1"
#60000
0"
b101 (
#65000
1"
#70000
0"
b110 (
#75000
1"
#80000
b10 )
0"
0#
b111 (
#85000
b0 )
b10 *
1"
#90000
b11 )
0"
1#
b1000 (
#95000
b100 )
b11 *
1"
#100000
0"
b1001 (
#105000
b1 )
1!
b100 *
1"
#110000
b0 )
0"
0#
b1010 (
#115000
0!
b0 *
1"
#120000
b1 )
0"
1#
b1011 (
#125000
b1 *
1"
#130000
0"
b1100 (
#135000
1"
#140000
b10 )
0"
0#
b1101 (
#145000
b0 )
b10 *
1"
#150000
b11 )
0"
1#
b1110 (
#155000
b100 )
b11 *
1"
#160000
b10 )
0"
0#
b1111 (
#165000
b0 )
b10 *
1"
#170000
b11 )
0"
1#
b10000 (
#175000
b100 )
b11 *
1"
#180000
b10 )
0"
0#
b10001 (
#185000
b0 )
b10 *
1"
#190000
b11 )
0"
1#
b10010 (
#195000
b100 )
b11 *
1"
#200000
0"
b10011 (
#205000
b1 )
1!
b100 *
1"
#210000
b0 )
0"
0#
b10100 (
#215000
0!
b0 *
1"
#220000
b1 )
0"
1#
b10101 (
#225000
b1 *
1"
#230000
b10 )
0"
0#
b10110 (
#235000
b0 )
b10 *
1"
#240000
0"
b10111 (
#245000
b0 *
1"
#250000
0"
b11000 (
#255000
1"
#260000
b1 )
0"
1#
b11001 (
#265000
b1 *
1"
#270000
b10 )
0"
0#
b11010 (
#275000
b0 )
b10 *
1"
#280000
b11 )
0"
1#
b11011 (
#285000
b100 )
b11 *
1"
#290000
0"
b11100 (
#295000
b1 )
1!
b100 *
1"
#300000
0"
b11101 (
#305000
0!
b1 *
1"
#310000
0"
b11110 (
#315000
1"
#320000
b10 )
0"
0#
b11111 (
#325000
b0 )
b10 *
1"
#330000
0"
b100000 (
#335000
b0 *
1"
#340000
0"
b100001 (
#345000
1"
#350000
0"
b100010 (
#355000
1"
#360000
b1 )
0"
1#
b100011 (
#365000
b1 *
1"
#370000
b10 )
0"
0#
b100100 (
#375000
b0 )
b10 *
1"
#380000
b11 )
0"
1#
b100101 (
#385000
b100 )
b11 *
1"
#390000
0"
b100110 (
#395000
b1 )
1!
b100 *
1"
#400000
0"
b100111 (
#405000
0!
b1 *
1"
#410000
0"
b101000 (
#415000
1"
#420000
0"
b101001 (
#425000
1"
#430000
b10 )
0"
0#
b101010 (
#435000
b0 )
b10 *
1"
#440000
0"
b101011 (
#445000
b0 *
1"
#450000
b1 )
0"
1#
b101100 (
#455000
b1 *
1"
#460000
0"
b101101 (
#465000
1"
#470000
0"
b101110 (
#475000
1"
#480000
b10 )
0"
0#
b101111 (
#485000
b0 )
b10 *
1"
#490000
0"
b110000 (
#495000
b0 *
1"
#500000
0"
b110001 (
#505000
1"
#510000
0"
b110010 (
