projects/zaram_training_course/03_sequential_logic/05_fsm_seq_detect/vcd/fsm_seq_detect_moore.vcd
$date
	Tue Jun 25 11:03:48 2024
$end
$version
	Icarus Verilog
$end
$timescale
	1ps
$end
$scope module fsm_seq_detect_moore_tb $end
$var wire 1 ! out $end
$var reg 1 " clk $end
$var reg 1 # i_seq $end
$var reg 1 $ rstn $end
$var reg 256 % taskState [255:0] $end
$var reg 256 & vcd_file [255:0] $end
$var integer 32 ' err [31:0] $end
$var integer 32 ( i [31:0] $end
$scope module u_fsm_seq_detect_moore $end
$var wire 1 " clk $end
$var wire 1 # i_seq $end
$var wire 1 $ rstn $end
$var wire 1 ! out $end
$var reg 3 ) next_state [2:0] $end
$var reg 1 * seq $end
$var reg 3 + state [2:0] $end
$upscope $end
$scope task init $end
$upscope $end
$scope task resetNCycle $end
$var reg 10 , i [9:0] $end
$upscope $end
$upscope $end
$enddefinitions $end
#0
$dumpvars
b100 ,
b0 +
0*
b0 )
bx (
b0 '
b1011100010111101110110011000110110010000101111011001100111001101101101010111110111001101100101011100010101111101100100011001010111010001100101011000110111010001011111011011010110111101101111011100100110010100101110011101100110001101100100 &
b101001001100101011100110110010101110100001000000100111101101110 %
0$
0#
0"
0!
$end
#5000
1"
#10000
0"
#15000
1"
#20000
0"
#25000
1"
#30000
0"
#35000
1"
#40000
0"
b0 (
b10100100110010101110011011001010111010000100000011011110110011001100110 %
1$
#45000
1"
#50000
0"
1#
b1 (
#55000
b1 )
1*
1"
#60000
0"
b10 (
#65000
b1 +
1"
#70000
0"
b11 (
#75000
1"
#80000
0"
b100 (
#85000
1"
#90000
0"
b101 (
#95000
1"
#100000
0"
b110 (
#105000
1"
#110000
0"
0#
b111 (
#115000
b10 )
0*
1"
#120000
0"
1#
b1000 (
#125000
b11 )
1*
b10 +
1"
#130000
0"
b1001 (
#135000
b100 )
b11 +
1"
#140000
0"
0#
b1010 (
#145000
b0 )
0*
1!
b100 +
1"
#150000
0"
1#
b1011 (
#155000
b1 )
1*
0!
b0 +
1"
#160000
0"
b1100 (
#165000
b1 +
1"
#170000
0"
0#
b1101 (
#175000
b10 )
0*
1"
#180000
0"
1#
b1110 (
#185000
b11 )
1*
b10 +
1"
#190000
0"
0#
b1111 (
#195000
b10 )
0*
b11 +
1"
#200000
0"
1#
b10000 (
#205000
b11 )
1*
b10 +
1"
#210000
0"
0#
b10001 (
#215000
b10 )
0*
b11 +
1"
#220000
0"
1#
b10010 (
#225000
b11 )
1*
b10 +
1"
#230000
0"
b10011 (
#235000
b100 )
b11 +
1"
#240000
0"
0#
b10100 (
#245000
b0 )
0*
1!
b100 +
1"
#250000
0"
1#
b10101 (
#255000
b1 )
1*
0!
b0 +
1"
#260000
0"
0#
b10110 (
#265000
b10 )
0*
b1 +
1"
#270000
0"
b10111 (
#275000
b0 )
b10 +
1"
#280000
0"
b11000 (
#285000
b0 +
1"
#290000
0"
1#
b11001 (
#295000
b1 )
1*
1"
#300000
0"
0#
b11010 (
#305000
b10 )
0*
b1 +
1"
#310000
0"
1#
b11011 (
#315000
b11 )
1*
b10 +
1"
#320000
0"
b11100 (
#325000
b100 )
b11 +
1"
#330000
0"
b11101 (
#335000
b1 )
1!
b100 +
1"
#340000
0"
b11110 (
#345000
0!
b1 +
1"
#350000
0"
0#
b11111 (
#355000
b10 )
0*
1"
#360000
0"
b100000 (
#365000
b0 )
b10 +
1"
#370000
0"
b100001 (
#375000
b0 +
1"
#380000
0"
b100010 (
#385000
1"
#390000
0"
1#
b100011 (
#395000
b1 )
1*
1"
#400000
0"
0#
b100100 (
#405000
b10 )
0*
b1 +
1"
#410000
0"
1#
b100101 (
#415000
b11 )
1*
b10 +
1"
#420000
0"
b100110 (
#425000
b100 )
b11 +
1"
#430000
0"
b100111 (
#435000
b1 )
1!
b100 +
1"
#440000
0"
b101000 (
#445000
0!
b1 +
1"
#450000
0"
b101001 (
#455000
1"
#460000
0"
0#
b101010 (
#465000
b10 )
0*
1"
#470000
0"
b101011 (
#475000
b0 )
b10 +
1"
#480000
0"
1#
b101100 (
#485000
b1 )
1*
b0 +
1"
#490000
0"
b101101 (
#495000
b1 +
1"
#500000
0"
b101110 (
#505000
1"
#510000
0"
0#
b101111 (
#515000
b10 )
0*
1"
#520000
0"
b110000 (
#525000
b0 )
b10 +
1"
#530000
0"
b110001 (
#535000
b0 +
1"
#540000
0"
b110010 (
