projects/verilog_tutorials/project_0/03_adder_cla/vcd/adder_cla.vcd
$date
	Tue Jul  2 10:46:23 2024
$end
$version
	Icarus Verilog
$end
$timescale
	1ps
$end
$scope module adder_cla_tb $end
$var wire 32 ! sum_test [31:0] $end
$var wire 32 " sum [31:0] $end
$var wire 1 # cout_test $end
$var wire 1 $ cout $end
$var reg 32 % a [31:0] $end
$var reg 32 & b [31:0] $end
$var reg 1 ' cin $end
$var reg 256 ( taskState [255:0] $end
$var reg 256 ) vcd_file [255:0] $end
$var integer 32 * err [31:0] $end
$var integer 32 + i [31:0] $end
$scope module u_adder_cla $end
$var wire 32 , a [31:0] $end
$var wire 32 - b [31:0] $end
$var wire 1 ' cin $end
$var wire 32 . sum_test [31:0] $end
$var wire 32 / sum [31:0] $end
$var wire 1 # cout_test $end
$var wire 1 $ cout $end
$var wire 7 0 co [6:0] $end
$scope begin adder_cla_loop[1] $end
$scope module u_adder_cla_4bit $end
$var wire 4 1 G [3:0] $end
$var wire 4 2 P [3:0] $end
$var wire 4 3 a [3:0] $end
$var wire 4 4 b [3:0] $end
$var wire 1 5 cin $end
$var wire 1 6 cout $end
$var wire 4 7 sum [3:0] $end
$var wire 4 8 C [3:0] $end
$upscope $end
$upscope $end
$scope begin adder_cla_loop[2] $end
$scope module u_adder_cla_4bit $end
$var wire 4 9 G [3:0] $end
$var wire 4 : P [3:0] $end
$var wire 4 ; a [3:0] $end
$var wire 4 < b [3:0] $end
$var wire 1 = cin $end
$var wire 1 > cout $end
$var wire 4 ? sum [3:0] $end
$var wire 4 @ C [3:0] $end
$upscope $end
$upscope $end
$scope begin adder_cla_loop[3] $end
$scope module u_adder_cla_4bit $end
$var wire 4 A G [3:0] $end
$var wire 4 B P [3:0] $end
$var wire 4 C a [3:0] $end
$var wire 4 D b [3:0] $end
$var wire 1 E cin $end
$var wire 1 F cout $end
$var wire 4 G sum [3:0] $end
$var wire 4 H C [3:0] $end
$upscope $end
$upscope $end
$scope begin adder_cla_loop[4] $end
$scope module u_adder_cla_4bit $end
$var wire 4 I G [3:0] $end
$var wire 4 J P [3:0] $end
$var wire 4 K a [3:0] $end
$var wire 4 L b [3:0] $end
$var wire 1 M cin $end
$var wire 1 N cout $end
$var wire 4 O sum [3:0] $end
$var wire 4 P C [3:0] $end
$upscope $end
$upscope $end
$scope begin adder_cla_loop[5] $end
$scope module u_adder_cla_4bit $end
$var wire 4 Q G [3:0] $end
$var wire 4 R P [3:0] $end
$var wire 4 S a [3:0] $end
$var wire 4 T b [3:0] $end
$var wire 1 U cin $end
$var wire 1 V cout $end
$var wire 4 W sum [3:0] $end
$var wire 4 X C [3:0] $end
$upscope $end
$upscope $end
$scope begin adder_cla_loop[6] $end
$scope module u_adder_cla_4bit $end
$var wire 4 Y G [3:0] $end
$var wire 4 Z P [3:0] $end
$var wire 4 [ a [3:0] $end
$var wire 4 \ b [3:0] $end
$var wire 1 ] cin $end
$var wire 1 ^ cout $end
$var wire 4 _ sum [3:0] $end
$var wire 4 ` C [3:0] $end
$upscope $end
$upscope $end
$scope module u_adder_cla_4bit0 $end
$var wire 4 a G [3:0] $end
$var wire 4 b P [3:0] $end
$var wire 4 c a [3:0] $end
$var wire 4 d b [3:0] $end
$var wire 1 ' cin $end
$var wire 1 e cout $end
$var wire 4 f sum [3:0] $end
$var wire 4 g C [3:0] $end
$upscope $end
$scope module u_adder_cla_4bit7 $end
$var wire 4 h G [3:0] $end
$var wire 4 i P [3:0] $end
$var wire 4 j a [3:0] $end
$var wire 4 k b [3:0] $end
$var wire 1 l cin $end
$var wire 1 $ cout $end
$var wire 4 m sum [3:0] $end
$var wire 4 n C [3:0] $end
$upscope $end
$upscope $end
$scope task init $end
$upscope $end
$scope task vecInsert $end
$var reg 4 o i [3:0] $end
$upscope $end
$scope task vecVerify $end
$var reg 4 p i [3:0] $end
$upscope $end
$upscope $end
$enddefinitions $end
#0
$dumpvars
b0 p
b0 o
bx n
bx m
xl
bx k
bx j
bx i
bx h
bx g
bx f
xe
bx d
bx c
bx b
bx a
bx `
bx _
x^
x]
bx \
bx [
bx Z
bx Y
bx X
bx W
xV
xU
bx T
bx S
bx R
bx Q
bx P
bx O
xN
xM
bx L
bx K
bx J
bx I
bx H
bx G
xF
xE
bx D
bx C
bx B
bx A
bx @
bx ?
x>
x=
bx <
bx ;
bx :
bx 9
bx 8
bx 7
x6
x5
bx 4
bx 3
bx 2
bx 1
bx 0
bx /
bx .
bx -
bx ,
b0 +
b0 *
b101110001011110111011001100011011001000010111101100001011001000110010001100101011100100101111101100011011011000110000100101110011101100110001101100100 )
b101011001000101010000110101101100100000001000000011000001011101 (
x'
bx &
bx %
x$
x#
bx "
bx !
$end
#10000
b1 p
b101011001000101010000110101101100100000001000000011000101011101 (
b1 o
b1 +
#20000
b10 p
b101011001000101010000110101101100100000001000000011001001011101 (
b10 o
b10 +
#30000
b11 p
b101011001000101010000110101101100100000001000000011001101011101 (
b11 o
b11 +
#40000
b100 p
b101011001000101010000110101101100100000001000000011010001011101 (
b100 o
b100 +
#50000
b101 p
b101011001000101010000110101101100100000001000000011010101011101 (
b101 o
b101 +
#60000
b110 p
b101011001000101010000110101101100100000001000000011011001011101 (
b110 o
b110 +
#70000
b111 p
b101011001000101010000110101101100100000001000000011011101011101 (
b111 o
b111 +
#80000
b1000 p
b101011001000101010000110101101100100000001000000011100001011101 (
b1000 o
b1000 +
#90000
b1001 p
b101011001000101010000110101101100100000001000000011100101011101 (
b1001 o
b1001 +
#100000
b1010 +
